{
    "key": "group_559779311b6b7",
    "title": "Home",
    "fields": [
        {
            "key": "field_530b3deebb561",
            "label": "Content Blocks",
            "name": "content_blocks",
            "type": "flexible_content",
            "instructions": "",
            "required": 0,
            "conditional_logic": 0,
            "wrapper": {
                "width": "",
                "class": "",
                "id": ""
            },
            "button_label": "Add Content",
            "min": "",
            "max": "",
            "layouts": [
                {
                    "key": "559779314204b",
                    "name": "content",
                    "label": "Content",
                    "display": "row",
                    "sub_fields": [
                        {
                            "key": "field_559766b72b267",
                            "label": "WYSIWYG Content",
                            "name": "wysiwyg_content",
                            "type": "wysiwyg",
                            "instructions": "",
                            "required": 0,
                            "conditional_logic": 0,
                            "wrapper": {
                                "width": "",
                                "class": "",
                                "id": ""
                            },
                            "default_value": "",
                            "toolbar": "full",
                            "media_upload": 1,
                            "tabs": "all"
                        }
                    ],
                    "min": "",
                    "max": ""
                },
                {
                    "key": "55977931484cb",
                    "name": "recent_posts",
                    "label": "Recent Posts",
                    "display": "row",
                    "sub_fields": [
                        {
                            "key": "field_55977ad51d5c7",
                            "label": "",
                            "name": "",
                            "type": "message",
                            "instructions": "",
                            "required": 0,
                            "conditional_logic": 0,
                            "wrapper": {
                                "width": "",
                                "class": "",
                                "id": ""
                            },
                            "message": "This section will 3 recent posts.",
                            "esc_html": 0
                        }
                    ],
                    "min": "",
                    "max": ""
                },
                {
                    "key": "55977931484de",
                    "name": "top_teaser",
                    "label": "Top Teaser",
                    "display": "row",
                    "sub_fields": [
                        {
                            "key": "field_530b3e3abb562",
                            "label": "Top Teaser Title",
                            "name": "home_top_teaser_title",
                            "type": "text",
                            "instructions": "",
                            "required": 0,
                            "conditional_logic": 0,
                            "wrapper": {
                                "width": "",
                                "class": "",
                                "id": ""
                            },
                            "default_value": "",
                            "placeholder": "",
                            "prepend": "",
                            "append": "",
                            "formatting": "none",
                            "maxlength": "",
                            "readonly": 0,
                            "disabled": 0
                        },
                        {
                            "key": "field_530b3e53bb563",
                            "label": "Top Teaser Content",
                            "name": "home_top_teaser_content",
                            "type": "textarea",
                            "instructions": "",
                            "required": 0,
                            "conditional_logic": 0,
                            "wrapper": {
                                "width": "",
                                "class": "",
                                "id": ""
                            },
                            "default_value": "",
                            "placeholder": "",
                            "maxlength": "",
                            "rows": "",
                            "new_lines": "",
                            "readonly": 0,
                            "disabled": 0
                        },
                        {
                            "key": "field_530b3e8fbb564",
                            "label": "Top Teaser Link",
                            "name": "home_top_teaser_link",
                            "type": "text",
                            "instructions": "",
                            "required": 0,
                            "conditional_logic": 0,
                            "wrapper": {
                                "width": "",
                                "class": "",
                                "id": ""
                            },
                            "default_value": "",
                            "placeholder": "",
                            "prepend": "",
                            "append": "",
                            "formatting": "none",
                            "maxlength": "",
                            "readonly": 0,
                            "disabled": 0
                        },
                        {
                            "key": "field_530b3eb4bb565",
                            "label": "Top teaser Link Title",
                            "name": "top_teaser_link_title",
                            "type": "text",
                            "instructions": "",
                            "required": 0,
                            "conditional_logic": 0,
                            "wrapper": {
                                "width": "",
                                "class": "",
                                "id": ""
                            },
                            "default_value": "",
                            "placeholder": "",
                            "prepend": "",
                            "append": "",
                            "formatting": "none",
                            "maxlength": "",
                            "readonly": 0,
                            "disabled": 0
                        }
                    ],
                    "min": "",
                    "max": ""
                },
                {
                    "key": "55977931615f0",
                    "name": "home_new_campus",
                    "label": "New Campus",
                    "display": "row",
                    "sub_fields": [
                        {
                            "key": "field_530b3fa1756ab",
                            "label": "Capmus Title",
                            "name": "capmus_title",
                            "type": "text",
                            "instructions": "",
                            "required": 0,
                            "conditional_logic": 0,
                            "wrapper": {
                                "width": "",
                                "class": "",
                                "id": ""
                            },
                            "default_value": "",
                            "placeholder": "",
                            "prepend": "",
                            "append": "",
                            "formatting": "none",
                            "maxlength": "",
                            "readonly": 0,
                            "disabled": 0
                        },
                        {
                            "key": "field_530b3fbb756ac",
                            "label": "Capmpus Image 1",
                            "name": "capmpus_image_1",
                            "type": "image",
                            "instructions": "",
                            "required": 0,
                            "conditional_logic": 0,
                            "wrapper": {
                                "width": "",
                                "class": "",
                                "id": ""
                            },
                            "preview_size": "thumbnail",
                            "library": "all",
                            "return_format": "array",
                            "min_width": 0,
                            "min_height": 0,
                            "min_size": 0,
                            "max_width": 0,
                            "max_height": 0,
                            "max_size": 0,
                            "mime_types": ""
                        },
                        {
                            "key": "field_530b3feb756ad",
                            "label": "Capmpus Image 2",
                            "name": "capmpus_image_2",
                            "type": "image",
                            "instructions": "",
                            "required": 0,
                            "conditional_logic": 0,
                            "wrapper": {
                                "width": "",
                                "class": "",
                                "id": ""
                            },
                            "preview_size": "thumbnail",
                            "library": "all",
                            "return_format": "array",
                            "min_width": 0,
                            "min_height": 0,
                            "min_size": 0,
                            "max_width": 0,
                            "max_height": 0,
                            "max_size": 0,
                            "mime_types": ""
                        },
                        {
                            "key": "field_530b3ff5756ae",
                            "label": "Capmpus Image 3",
                            "name": "capmpus_image_3",
                            "type": "image",
                            "instructions": "",
                            "required": 0,
                            "conditional_logic": 0,
                            "wrapper": {
                                "width": "",
                                "class": "",
                                "id": ""
                            },
                            "preview_size": "thumbnail",
                            "library": "all",
                            "return_format": "array",
                            "min_width": 0,
                            "min_height": 0,
                            "min_size": 0,
                            "max_width": 0,
                            "max_height": 0,
                            "max_size": 0,
                            "mime_types": ""
                        }
                    ],
                    "min": "",
                    "max": ""
                },
                {
                    "key": "559779317d516",
                    "name": "campus_images",
                    "label": "Campus Images",
                    "display": "row",
                    "sub_fields": [
                        {
                            "key": "field_55976115a45ef",
                            "label": "Capmus Title",
                            "name": "capmus_title",
                            "type": "text",
                            "instructions": "",
                            "required": 0,
                            "conditional_logic": 0,
                            "wrapper": {
                                "width": "",
                                "class": "",
                                "id": ""
                            },
                            "default_value": "",
                            "placeholder": "",
                            "prepend": "",
                            "append": "",
                            "formatting": "none",
                            "maxlength": "",
                            "readonly": 0,
                            "disabled": 0
                        }
                    ],
                    "min": "",
                    "max": ""
                },
                {
                    "key": "559779318366e",
                    "name": "academics_info",
                    "label": "Academics Info",
                    "display": "row",
                    "sub_fields": [
                        {
                            "key": "field_535a41e1e3b24",
                            "label": "Academics Title",
                            "name": "academics_title",
                            "type": "text",
                            "instructions": "",
                            "required": 0,
                            "conditional_logic": 0,
                            "wrapper": {
                                "width": "",
                                "class": "",
                                "id": ""
                            },
                            "default_value": "",
                            "placeholder": "",
                            "prepend": "",
                            "append": "",
                            "formatting": "none",
                            "maxlength": "",
                            "readonly": 0,
                            "disabled": 0
                        },
                        {
                            "key": "field_559776855739d",
                            "label": "Academics Infos",
                            "name": "academics_infos",
                            "type": "repeater",
                            "instructions": "",
                            "required": 0,
                            "conditional_logic": 0,
                            "wrapper": {
                                "width": "",
                                "class": "",
                                "id": ""
                            },
                            "min": "",
                            "max": "",
                            "layout": "table",
                            "button_label": "Add Info",
                            "sub_fields": [
                                {
                                    "key": "field_5597770f5739f",
                                    "label": "Image",
                                    "name": "school_information_image",
                                    "type": "image",
                                    "instructions": "",
                                    "required": 0,
                                    "conditional_logic": 0,
                                    "wrapper": {
                                        "width": "",
                                        "class": "",
                                        "id": ""
                                    },
                                    "return_format": "array",
                                    "preview_size": "rpwe-thumbnail",
                                    "library": "all",
                                    "min_width": "",
                                    "min_height": "",
                                    "min_size": "",
                                    "max_width": "",
                                    "max_height": "",
                                    "max_size": "",
                                    "mime_types": ""
                                },
                                {
                                    "key": "field_559776e15739e",
                                    "label": "Title",
                                    "name": "school_information_title",
                                    "type": "text",
                                    "instructions": "",
                                    "required": 0,
                                    "conditional_logic": 0,
                                    "wrapper": {
                                        "width": "",
                                        "class": "",
                                        "id": ""
                                    },
                                    "default_value": "",
                                    "placeholder": "",
                                    "prepend": "",
                                    "append": "",
                                    "formatting": "none",
                                    "maxlength": "",
                                    "readonly": 0,
                                    "disabled": 0
                                },
                                {
                                    "key": "field_5597772b573a0",
                                    "label": "Description",
                                    "name": "school_information_description",
                                    "type": "textarea",
                                    "instructions": "",
                                    "required": 0,
                                    "conditional_logic": 0,
                                    "wrapper": {
                                        "width": "",
                                        "class": "",
                                        "id": ""
                                    },
                                    "default_value": "",
                                    "placeholder": "",
                                    "maxlength": "",
                                    "rows": "",
                                    "new_lines": "",
                                    "readonly": 0,
                                    "disabled": 0
                                },
                                {
                                    "key": "field_55977748573a1",
                                    "label": "Read More Link",
                                    "name": "school_information_read_more",
                                    "type": "text",
                                    "instructions": "",
                                    "required": 0,
                                    "conditional_logic": 0,
                                    "wrapper": {
                                        "width": "",
                                        "class": "",
                                        "id": ""
                                    },
                                    "default_value": "",
                                    "placeholder": "",
                                    "prepend": "",
                                    "append": "",
                                    "formatting": "none",
                                    "maxlength": "",
                                    "readonly": 0,
                                    "disabled": 0
                                },
                                {
                                    "key": "field_55977772573a2",
                                    "label": "Read More Title",
                                    "name": "school_information_read_more_title",
                                    "type": "text",
                                    "instructions": "",
                                    "required": 0,
                                    "conditional_logic": 0,
                                    "wrapper": {
                                        "width": "",
                                        "class": "",
                                        "id": ""
                                    },
                                    "default_value": "",
                                    "placeholder": "",
                                    "prepend": "",
                                    "append": "",
                                    "formatting": "none",
                                    "maxlength": "",
                                    "readonly": 0,
                                    "disabled": 0
                                }
                            ]
                        }
                    ],
                    "min": "",
                    "max": ""
                },
                {
                    "key": "55977931af6b4",
                    "name": "school_information",
                    "label": "School Information",
                    "display": "row",
                    "sub_fields": [
                        {
                            "key": "field_530b4a9b18b79",
                            "label": "School Information Title",
                            "name": "school_information_title",
                            "type": "text",
                            "instructions": "",
                            "required": 0,
                            "conditional_logic": 0,
                            "wrapper": {
                                "width": "",
                                "class": "",
                                "id": ""
                            },
                            "default_value": "",
                            "placeholder": "",
                            "prepend": "",
                            "append": "",
                            "formatting": "none",
                            "maxlength": "",
                            "readonly": 0,
                            "disabled": 0
                        },
                        {
                            "key": "field_530b4ade18b7a",
                            "label": "School Information Image",
                            "name": "school_information_image",
                            "type": "image",
                            "instructions": "",
                            "required": 0,
                            "conditional_logic": 0,
                            "wrapper": {
                                "width": "",
                                "class": "",
                                "id": ""
                            },
                            "preview_size": "thumbnail",
                            "library": "all",
                            "return_format": "array",
                            "min_width": 0,
                            "min_height": 0,
                            "min_size": 0,
                            "max_width": 0,
                            "max_height": 0,
                            "max_size": 0,
                            "mime_types": ""
                        },
                        {
                            "key": "field_530b4b0718b7b",
                            "label": "School Information Description",
                            "name": "school_information_description",
                            "type": "textarea",
                            "instructions": "",
                            "required": 0,
                            "conditional_logic": 0,
                            "wrapper": {
                                "width": "",
                                "class": "",
                                "id": ""
                            },
                            "default_value": "",
                            "placeholder": "",
                            "maxlength": "",
                            "rows": "",
                            "new_lines": "",
                            "readonly": 0,
                            "disabled": 0
                        },
                        {
                            "key": "field_530b4b1b18b7c",
                            "label": "School Information Read more",
                            "name": "school_information_read_more",
                            "type": "text",
                            "instructions": "",
                            "required": 0,
                            "conditional_logic": 0,
                            "wrapper": {
                                "width": "",
                                "class": "",
                                "id": ""
                            },
                            "default_value": "",
                            "placeholder": "",
                            "prepend": "",
                            "append": "",
                            "formatting": "none",
                            "maxlength": "",
                            "readonly": 0,
                            "disabled": 0
                        },
                        {
                            "key": "field_530c29bafebac",
                            "label": "School Information Read more title",
                            "name": "school_information_read_more_title",
                            "type": "text",
                            "instructions": "",
                            "required": 0,
                            "conditional_logic": 0,
                            "wrapper": {
                                "width": "",
                                "class": "",
                                "id": ""
                            },
                            "default_value": "",
                            "placeholder": "",
                            "prepend": "",
                            "append": "",
                            "formatting": "none",
                            "maxlength": "",
                            "readonly": 0,
                            "disabled": 0
                        }
                    ],
                    "min": "",
                    "max": ""
                },
                {
                    "key": "55977931ce496",
                    "name": "haut_schoolinfo_logo",
                    "label": "Schoolinfo Logo",
                    "display": "row",
                    "sub_fields": [
                        {
                            "key": "field_53a83332dc348",
                            "label": "Schoolinfo logo image title",
                            "name": "schoolinfo_logo_image_title",
                            "type": "text",
                            "instructions": "",
                            "required": 0,
                            "conditional_logic": 0,
                            "wrapper": {
                                "width": "",
                                "class": "",
                                "id": ""
                            },
                            "default_value": "",
                            "placeholder": "",
                            "prepend": "",
                            "append": "",
                            "formatting": "none",
                            "maxlength": "",
                            "readonly": 0,
                            "disabled": 0
                        },
                        {
                            "key": "field_53a8372bdc349",
                            "label": "Schoolinfo logo Image",
                            "name": "schoolinfo_logo_image",
                            "type": "image",
                            "instructions": "",
                            "required": 0,
                            "conditional_logic": 0,
                            "wrapper": {
                                "width": "",
                                "class": "",
                                "id": ""
                            },
                            "preview_size": "thumbnail",
                            "library": "all",
                            "return_format": "array",
                            "min_width": 0,
                            "min_height": 0,
                            "min_size": 0,
                            "max_width": 0,
                            "max_height": 0,
                            "max_size": 0,
                            "mime_types": ""
                        },
                        {
                            "key": "field_53a8374adc34a",
                            "label": "Schoolinfo logo image link",
                            "name": "schoolinfo_logo_image_link",
                            "type": "text",
                            "instructions": "",
                            "required": 0,
                            "conditional_logic": 0,
                            "wrapper": {
                                "width": "",
                                "class": "",
                                "id": ""
                            },
                            "default_value": "",
                            "placeholder": "",
                            "prepend": "",
                            "append": "",
                            "formatting": "none",
                            "maxlength": "",
                            "readonly": 0,
                            "disabled": 0
                        }
                    ],
                    "min": "",
                    "max": 4
                },
                {
                    "key": "55977931e1066",
                    "name": "school_logos",
                    "label": "School Logos",
                    "display": "row",
                    "sub_fields": [
                        {
                            "key": "field_559697625f0fd",
                            "label": "Logos",
                            "name": "logos",
                            "type": "repeater",
                            "instructions": "",
                            "required": 0,
                            "conditional_logic": 0,
                            "wrapper": {
                                "width": "",
                                "class": "",
                                "id": ""
                            },
                            "row_min": "",
                            "row_limit": "",
                            "layout": "table",
                            "button_label": "Add Logo",
                            "min": 0,
                            "max": 0,
                            "sub_fields": [
                                {
                                    "key": "field_559697b617f11",
                                    "label": "Schoolinfo logo image title",
                                    "name": "schoolinfo_logo_image_title",
                                    "type": "text",
                                    "instructions": "",
                                    "required": 0,
                                    "conditional_logic": 0,
                                    "wrapper": {
                                        "width": "",
                                        "class": "",
                                        "id": ""
                                    },
                                    "default_value": "",
                                    "placeholder": "",
                                    "prepend": "",
                                    "append": "",
                                    "formatting": "none",
                                    "maxlength": "",
                                    "readonly": 0,
                                    "disabled": 0
                                },
                                {
                                    "key": "field_559697e017f12",
                                    "label": "Schoolinfo logo Image",
                                    "name": "schoolinfo_logo_image",
                                    "type": "image",
                                    "instructions": "",
                                    "required": 0,
                                    "conditional_logic": 0,
                                    "wrapper": {
                                        "width": "",
                                        "class": "",
                                        "id": ""
                                    },
                                    "preview_size": "thumbnail",
                                    "library": "all",
                                    "return_format": "array",
                                    "min_width": 0,
                                    "min_height": 0,
                                    "min_size": 0,
                                    "max_width": 0,
                                    "max_height": 0,
                                    "max_size": 0,
                                    "mime_types": ""
                                },
                                {
                                    "key": "field_5596986717f13",
                                    "label": "Schoolinfo logo image link",
                                    "name": "schoolinfo_logo_image_link",
                                    "type": "text",
                                    "instructions": "",
                                    "required": 0,
                                    "conditional_logic": 0,
                                    "wrapper": {
                                        "width": "",
                                        "class": "",
                                        "id": ""
                                    },
                                    "default_value": "",
                                    "placeholder": "",
                                    "prepend": "",
                                    "append": "",
                                    "formatting": "none",
                                    "maxlength": "",
                                    "readonly": 0,
                                    "disabled": 0
                                }
                            ]
                        }
                    ],
                    "min": "",
                    "max": 4
                },
                {
                    "key": "5597793205cc2",
                    "name": "school_info",
                    "label": "School info",
                    "display": "row",
                    "sub_fields": [
                        {
                            "key": "field_559a17ec4552e",
                            "label": "Full Width",
                            "name": "full_width",
                            "type": "true_false",
                            "instructions": "Select this box to display the last box in full width if the box counts are ODD. So, the last box will be displayed in full width. Like if there are only one OR three boxes, so you can select 1st (in condition on 1 box) and 3rd (in condition on 3 boxes) box as full.",
                            "required": 0,
                            "conditional_logic": 0,
                            "wrapper": {
                                "width": "",
                                "class": "",
                                "id": ""
                            },
                            "message": "",
                            "default_value": 1
                        },
                        {
                            "key": "field_559a14bab65df",
                            "label": "School info",
                            "name": "school_infos",
                            "type": "repeater",
                            "instructions": "",
                            "required": 0,
                            "conditional_logic": 0,
                            "wrapper": {
                                "width": "",
                                "class": "",
                                "id": ""
                            },
                            "min": "",
                            "max": "",
                            "layout": "row",
                            "button_label": "Add Info",
                            "sub_fields": [
                                {
                                    "key": "field_530b53c68d4a6",
                                    "label": "Title",
                                    "name": "school_info_title",
                                    "type": "text",
                                    "instructions": "",
                                    "required": 0,
                                    "conditional_logic": 0,
                                    "wrapper": {
                                        "width": "",
                                        "class": "",
                                        "id": ""
                                    },
                                    "default_value": "",
                                    "placeholder": "",
                                    "prepend": "",
                                    "append": "",
                                    "maxlength": "",
                                    "readonly": 0,
                                    "disabled": 0
                                },
                                {
                                    "key": "field_530b53d38d4a7",
                                    "label": "Image",
                                    "name": "school_info_image",
                                    "type": "image",
                                    "instructions": "",
                                    "required": 0,
                                    "conditional_logic": 0,
                                    "wrapper": {
                                        "width": "",
                                        "class": "",
                                        "id": ""
                                    },
                                    "return_format": "array",
                                    "preview_size": "thumbnail",
                                    "library": "all",
                                    "min_width": "",
                                    "min_height": "",
                                    "min_size": "",
                                    "max_width": "",
                                    "max_height": "",
                                    "max_size": "",
                                    "mime_types": ""
                                },
                                {
                                    "key": "field_530b53e78d4a8",
                                    "label": "Description",
                                    "name": "school_info_description",
                                    "type": "textarea",
                                    "instructions": "",
                                    "required": 0,
                                    "conditional_logic": 0,
                                    "wrapper": {
                                        "width": "",
                                        "class": "",
                                        "id": ""
                                    },
                                    "default_value": "",
                                    "placeholder": "",
                                    "maxlength": "",
                                    "rows": "",
                                    "new_lines": "",
                                    "readonly": 0,
                                    "disabled": 0
                                },
                                {
                                    "key": "field_530b54018d4a9",
                                    "label": "Read More Link",
                                    "name": "school_info_read_more",
                                    "type": "text",
                                    "instructions": "",
                                    "required": 0,
                                    "conditional_logic": 0,
                                    "wrapper": {
                                        "width": "",
                                        "class": "",
                                        "id": ""
                                    },
                                    "default_value": "",
                                    "placeholder": "",
                                    "prepend": "",
                                    "append": "",
                                    "maxlength": "",
                                    "readonly": 0,
                                    "disabled": 0
                                },
                                {
                                    "key": "field_530c2b1e46599",
                                    "label": "Read More Title",
                                    "name": "school_info_read_more_title",
                                    "type": "text",
                                    "instructions": "",
                                    "required": 0,
                                    "conditional_logic": 0,
                                    "wrapper": {
                                        "width": "",
                                        "class": "",
                                        "id": ""
                                    },
                                    "default_value": "read more",
                                    "placeholder": "",
                                    "prepend": "",
                                    "append": "",
                                    "maxlength": "",
                                    "readonly": 0,
                                    "disabled": 0
                                }
                            ]
                        }
                    ],
                    "min": "",
                    "max": ""
                },
                {
                    "key": "559779322b016",
                    "name": "enrol_info",
                    "label": "Enrol info",
                    "display": "row",
                    "sub_fields": [
                        {
                            "key": "field_530c6b22a2bc4",
                            "label": "Enrol title",
                            "name": "entrol_title",
                            "type": "text",
                            "instructions": "",
                            "required": 0,
                            "conditional_logic": 0,
                            "wrapper": {
                                "width": "",
                                "class": "",
                                "id": ""
                            },
                            "default_value": "",
                            "placeholder": "",
                            "prepend": "",
                            "append": "",
                            "formatting": "none",
                            "maxlength": "",
                            "readonly": 0,
                            "disabled": 0
                        },
                        {
                            "key": "field_530c6b59a2bc5",
                            "label": "Enrol content",
                            "name": "enrol_content",
                            "type": "wysiwyg",
                            "instructions": "",
                            "required": 0,
                            "conditional_logic": 0,
                            "wrapper": {
                                "width": "",
                                "class": "",
                                "id": ""
                            },
                            "default_value": "",
                            "toolbar": "full",
                            "media_upload": 1,
                            "tabs": "all"
                        }
                    ],
                    "min": "",
                    "max": ""
                },
                {
                    "key": "559779323787c",
                    "name": "community_life",
                    "label": "Community Life",
                    "display": "row",
                    "sub_fields": [
                        {
                            "key": "field_530c873ab0bbb",
                            "label": "Community Title",
                            "name": "community_title",
                            "type": "text",
                            "instructions": "",
                            "required": 0,
                            "conditional_logic": 0,
                            "wrapper": {
                                "width": "",
                                "class": "",
                                "id": ""
                            },
                            "default_value": "",
                            "placeholder": "",
                            "prepend": "",
                            "append": "",
                            "formatting": "none",
                            "maxlength": "",
                            "readonly": 0,
                            "disabled": 0
                        },
                        {
                            "key": "field_530c8757b0bbc",
                            "label": "Community Description",
                            "name": "community_description",
                            "type": "textarea",
                            "instructions": "",
                            "required": 0,
                            "conditional_logic": 0,
                            "wrapper": {
                                "width": "",
                                "class": "",
                                "id": ""
                            },
                            "default_value": "",
                            "placeholder": "",
                            "maxlength": "",
                            "rows": "",
                            "new_lines": "",
                            "readonly": 0,
                            "disabled": 0
                        },
                        {
                            "key": "field_530c8787b0bbd",
                            "label": "Commnunity Image",
                            "name": "commnunity_image",
                            "type": "image",
                            "instructions": "",
                            "required": 0,
                            "conditional_logic": 0,
                            "wrapper": {
                                "width": "",
                                "class": "",
                                "id": ""
                            },
                            "preview_size": "thumbnail",
                            "library": "all",
                            "return_format": "array",
                            "min_width": 0,
                            "min_height": 0,
                            "min_size": 0,
                            "max_width": 0,
                            "max_height": 0,
                            "max_size": 0,
                            "mime_types": ""
                        },
                        {
                            "key": "field_530c87d6b0bbe",
                            "label": "Community Link",
                            "name": "community_link",
                            "type": "text",
                            "instructions": "",
                            "required": 0,
                            "conditional_logic": 0,
                            "wrapper": {
                                "width": "",
                                "class": "",
                                "id": ""
                            },
                            "default_value": "",
                            "placeholder": "",
                            "prepend": "",
                            "append": "",
                            "formatting": "none",
                            "maxlength": "",
                            "readonly": 0,
                            "disabled": 0
                        },
                        {
                            "key": "field_530c87f4b0bbf",
                            "label": "Community Link title",
                            "name": "community_link_title",
                            "type": "text",
                            "instructions": "",
                            "required": 0,
                            "conditional_logic": 0,
                            "wrapper": {
                                "width": "",
                                "class": "",
                                "id": ""
                            },
                            "default_value": "",
                            "placeholder": "",
                            "prepend": "",
                            "append": "",
                            "formatting": "none",
                            "maxlength": "",
                            "readonly": 0,
                            "disabled": 0
                        },
                        {
                            "key": "field_532847343c07d",
                            "label": "Know more",
                            "name": "know_more",
                            "type": "text",
                            "instructions": "",
                            "required": 0,
                            "conditional_logic": 0,
                            "wrapper": {
                                "width": "",
                                "class": "",
                                "id": ""
                            },
                            "default_value": "",
                            "placeholder": "",
                            "prepend": "",
                            "append": "",
                            "formatting": "none",
                            "maxlength": "",
                            "readonly": 0,
                            "disabled": 0
                        }
                    ],
                    "min": "",
                    "max": ""
                }
            ]
        }
    ],
    "location": [
        [
            {
                "param": "post_type",
                "operator": "==",
                "value": "page"
            },
            {
                "param": "page_template",
                "operator": "==",
                "value": "templates\/template-home.php"
            }
        ]
    ],
    "menu_order": 0,
    "position": "normal",
    "style": "default",
    "label_placement": "top",
    "instruction_placement": "label",
    "hide_on_screen": "",
    "modified": 1436168452
}